"title", "content", "icon", "accesskey", "weight"
"Linodef Button de", "php: // Schaltflaeche fuer Linodef Tags.
$drupal_element_type = \'field-name|content-type|vocabID\';
// Oben einen Feldnamen, Inhaltstypen oder die ID eines Vokabulars angeben, z.B. \'10\' oder \'field_beispiel\'.
// Falls eine \"no link\" Markierung zum Tag hinzugefuegt werden soll, den folgenden Wert auf \"True\" setzen.
$no_link = False;

// Nicht bearbeiten.
if (module_hook(linodef_bueditor, buttons)) {
    return linodef_bueditor_buttons($drupal_element_type, $no_link);
}
else {
    return t(\'Module !module not enabled!\', array(\'!module\' => \'Linodef - BUEditor\'));
}", "Linodef de", "", "10"
